# An empty Cornell Box with cyan and orange walls in OBJ format.
# Note that the real box is not a perfect cube, so
# the faces are imperfect in this data set.
#
# Created by Guedis Cardenas and Morgan McGuire at Williams College, 2011
# Released into the Public Domain.
#
# http://graphics.cs.williams.edu/data
# http://www.graphics.cornell.edu/online/box/data.html
#

newmtl leftWall
  Ns 10.0000
  Ni 1.5000
  illum 2
  Ka 0.65 0.47 0.98 # Purple
  Kd 0.65 0.47 0.98
  Ks 0 0 0
  Ke 0 0 0


newmtl rightWall
  Ns 10.0000
  Ni 1.5000
  illum 2
  Ka 1.0 1.0 0.0 # Yellow
  Kd 1.0 1.0 0.0 
  Ks 0 0 0
  Ke 0 0 0
  
newmtl floor
  Ns 10.0000
  Ni 1.0000
  illum 2
  Ka 0.725 0.71 0.68 # White
  Kd 0.725 0.71 0.68
  Ks 0 0 0
  Ke 0 0 0


newmtl ceiling
  Ns 10.0000
  Ni 1.0000
  illum 2
  Ka 0.725 0.71 0.68 # White
  Kd 0.725 0.71 0.68
  Ks 0     0    0
  Ke 0     0    0
  

newmtl backWall
  Ns 10.0000
  Ni 1.0000
  illum 2
  Ka 0.725 0.71 0.68 # White
  Kd 0.725 0.71 0.68
  Ks 0 0 0
  Ke 0 0 0