* 0.933 0.910 0.667
0.39 0.00 -0.18 0.02
0.39 0.02 -0.17 0.02
0.40 0.05 -0.15 0.02
0.42 0.10 -0.12 0.02
0.44 0.15 -0.10 0.03
0.47 0.20 -0.07 0.03
0.51 0.24 -0.06 0.04
0.56 0.28 -0.05 0.05
0.61 0.31 -0.06 0.05
0.65 0.35 -0.09 0.06
0.69 0.39 -0.12 0.065
0.71 0.44 -0.15 0.07
0.72 0.49 -0.17 0.07
0.72 0.55 -0.19 0.065
0.72 0.60 -0.22 0.055
0.71 0.66 -0.23 0.035
0.68 0.72 -0.25 0.025
0.65 0.77 -0.27 0.02
0.62 0.81 -0.28 0.015
0.58 0.86 -0.29 0.01
0.54 0.90 -0.31 0.005
#