# This file uses centimeters as units for non-parametric coordinates.

g default
v -24.623489 -0.000001 -7.097853
v 25.167389 -0.000001 -6.260886
v -25.698547 45.275146 -4.709679
v 27.199396 41.528782 -7.676671
v -19.047371 43.986931 -48.814270
v 19.900295 43.514637 -50.114506
v -25.507704 -0.000001 -62.498310
v 23.201923 -0.000001 -59.521194
v 20.198195 26.984921 -9.230612
v -0.434071 50.893749 -5.753998
v -29.976135 50.861824 -30.962931
v 28.148445 48.485580 -31.264856
v -0.772883 57.871834 -55.139305
v -19.738928 27.421583 -55.638744
v 18.137215 26.877085 -52.983349
v 0.011835 -0.000001 -64.579910
v -31.598045 -0.000001 -31.883011
v 32.176868 -0.000001 -32.057022
v -0.022736 -0.000001 -5.681959
v -24.575434 27.511911 -3.552941
v 0.424113 26.471548 -0.438531
v 0.000074 52.239666 -29.632635
v -0.519772 27.518356 -63.000122
v -0.000000 -0.000001 -31.984694
v 31.191252 27.742167 -32.174545
v -24.858109 26.975780 -31.756458
v 0.082499 14.946241 -4.095171
v -11.064316 26.343740 -3.875984
v 13.799769 -0.000001 -3.630429
v 19.973309 17.313456 -10.723627
v 9.253049 26.418352 -7.748336
v 0.078583 36.823177 -1.128408
v 17.927633 36.038223 -11.789484
v 12.988107 51.287331 -4.994703
v -23.145966 32.280857 -5.859831
v -12.341209 49.319744 -7.102620
v -31.120770 48.898571 -16.567150
v -0.000457 51.027267 -18.087549
v -12.543560 55.050850 -28.960657
v 31.427465 47.414848 -19.368868
v 12.507090 51.918663 -29.855444
v -0.314766 61.597691 -40.322544
v 25.787580 47.798042 -42.755932
v 13.334000 50.854301 -54.415024
v -24.792637 47.945503 -42.323799
v -11.609349 49.580368 -51.059055
v -18.489859 36.120743 -51.468498
v -0.573322 38.599003 -59.662136
v -9.508192 26.814722 -58.590374
v 16.245222 35.744049 -49.634636
v 10.074985 27.019106 -59.111088
v -0.011712 15.498891 -63.536194
v 18.693789 16.452448 -55.564800
v 14.035136 -0.000001 -63.946671
v -20.244165 17.816103 -58.341476
v -14.125703 -0.000001 -65.116089
v -29.930742 -0.000001 -50.417408
v -0.000000 -0.000001 -50.704449
v -15.460728 -0.000001 -31.984694
v 27.141220 -0.000001 -48.688305
v 15.460730 -0.000001 -31.984694
v -0.000000 -0.000001 -16.919502
v 28.576387 -0.000001 -17.730659
v -27.947577 -0.000001 -18.065140
v 28.083593 16.254053 -31.669588
v 27.846766 27.288237 -19.194391
v 23.276413 26.588320 -42.024788
v 25.195887 36.403152 -31.228239
v -28.399546 16.613960 -31.955091
v -21.879663 26.707302 -43.860287
v -29.498716 27.523712 -19.498272
v -27.092791 35.876549 -32.307453
v -13.223196 -0.000001 -6.343682
v -21.705093 16.508364 -5.756863
v -10.338966 15.555219 -5.948345
v 10.562053 15.967072 -5.660613
v 9.002458 36.640686 -7.481741
v -11.524941 36.244835 -1.510606
v -11.856657 50.874538 -18.806757
v 12.457243 51.547245 -18.796141
v 14.862654 60.829144 -42.023922
v -15.399778 68.538506 -43.468159
v -9.301759 37.021606 -55.692432
v 9.810581 37.310493 -56.560295
v 9.912999 15.620489 -61.286522
v -10.527164 16.599003 -63.025784
v -14.611740 -0.000001 -49.917324
v 14.611742 -0.000001 -49.917324
v 14.611742 -0.000001 -17.706633
v -14.611752 -0.000001 -17.706608
v 26.445177 17.427273 -20.674778
v 24.471424 16.285734 -43.285603
v 22.891966 36.361073 -41.981209
v 23.126871 36.192791 -20.727821
v -27.979584 18.181488 -48.359169
v -26.922400 17.160049 -19.631378
v -26.351250 34.879684 -19.707649
v -20.881140 36.267433 -41.726040
v -11.244258 8.076139 -6.920822
v -14.292477 15.708960 -8.905932
v -6.717030 -0.000001 -6.433991
v -0.024516 7.727598 -3.698792
v -5.122681 15.168509 -5.314703
v -11.726458 21.314335 -2.743370
v 0.596243 20.949528 -0.036618
v -5.648479 26.548298 -2.078364
v -24.773520 22.363791 -2.660182
v -15.621111 26.223515 -6.124973
v 6.732665 -0.000001 -6.466439
v 11.461118 8.001173 -5.577950
v 4.983746 15.144360 -5.461015
v 20.884600 -0.000001 -4.041627
v 25.036345 10.462284 -5.051379
v 15.102419 16.452345 -7.445337
v 10.349801 21.680882 -4.896928
v 19.619329 22.145811 -10.587346
v 16.275137 27.050505 -4.769939
v 4.714264 26.369389 -6.498231
v 0.499067 31.356047 -2.540409
v 8.745316 31.452347 -8.157646
v 4.670936 37.048309 -5.062757
v 19.936008 32.130993 -9.131405
v 12.999053 36.004314 -9.783002
v 12.793234 42.389572 -1.353459
v 19.841263 39.207169 -11.999614
v 23.701807 47.251007 -3.435007
v -0.748816 45.074989 0.990241
v 5.757194 51.756615 -4.605849
v -21.274406 30.592192 -7.481432
v -9.898747 31.417173 -5.790753
v -17.988974 34.167358 -1.278085
v -5.172638 37.100174 -2.872740
v -12.590678 43.861401 -2.167543
v -6.279807 50.387348 -6.214470
v -27.144535 37.833248 -4.828298
v -20.347710 48.540234 -4.220148
v -30.890301 47.326775 -9.024309
v -12.043774 49.867905 -13.066901
v -23.623434 56.626720 -13.774430
v 0.015242 50.823254 -12.296195
v -6.018163 51.271576 -18.261204
v -12.308417 51.492554 -24.249109
v -0.012512 52.427437 -23.773029
v -6.210264 52.017025 -29.677330
v -28.750017 49.922592 -23.954918
v -24.956091 60.800293 -29.093409
v 12.256934 51.598145 -12.623609
v 6.004171 50.664268 -18.345797
v 29.456293 44.004246 -13.078445
v 22.980347 53.500145 -17.771301
v 12.657808 51.619282 -24.348270
v 29.151485 48.053650 -25.834551
v 23.500000 59.251747 -29.975145
v 6.226910 51.753132 -29.755102
v 0.021960 54.144997 -35.072609
v 13.309775 57.235493 -35.381744
v 7.661184 62.331387 -41.054264
v 27.438129 49.205540 -37.157440
v 20.985161 57.984875 -43.040428
v 14.824999 57.155369 -49.406300
v 23.451622 45.526367 -47.638336
v 17.327980 46.007683 -51.472286
v -0.453415 65.262100 -49.206383
v 7.430171 55.514843 -56.263023
v -29.247631 49.863678 -37.601025
v -12.248717 59.246540 -33.877613
v -22.092108 56.748966 -43.587318
v -6.239945 62.479816 -41.321095
v -13.581971 58.293770 -50.675297
v -6.296151 53.935081 -52.444172
v -22.130909 45.635838 -46.415161
v -17.571791 46.623734 -51.465626
v -17.774458 39.744923 -48.743393
v -10.372840 43.435318 -53.821072
v -13.285961 36.326729 -53.361248
v 0.435449 47.930077 -59.634472
v -5.365593 38.082069 -59.450752
v -9.781434 32.093082 -58.318672
v -0.785185 32.633694 -61.631634
v -5.277049 27.289524 -61.535275
v -20.083143 32.148560 -54.408943
v -15.451078 27.288681 -58.143063
v 11.282639 43.424217 -55.381165
v 4.825565 38.362083 -59.448315
v 18.442751 39.639133 -49.798920
v 13.516850 36.422184 -53.804508
v 9.909787 32.049580 -58.058853
v 17.444916 31.557745 -51.550785
v 14.735812 27.029892 -56.860279
v 4.827559 26.836233 -60.016079
v -0.189962 22.270555 -64.683159
v 10.146985 22.003918 -61.474705
v 5.078434 15.478128 -62.757439
v 19.013506 22.287998 -54.748360
v 14.846075 16.166431 -59.579559
v 13.063399 7.721784 -66.883080
v 23.842325 9.339097 -60.993923
v 19.873043 -0.000001 -61.545227
v 0.344591 7.576501 -67.682304
v 7.356304 -0.000001 -64.488419
v -19.545488 22.961058 -56.793476
v -9.137287 21.287594 -58.689884
v -14.856072 16.564041 -59.960068
v -5.369099 16.040838 -64.036217
v -13.166945 8.399806 -67.991028
v -7.217003 -0.000001 -65.538467
v -24.124094 10.412395 -61.867863
v -20.825794 -0.000001 -63.792240
v -28.790442 -0.000001 -58.594540
v -14.040371 -0.000001 -56.853458
v -21.332541 -0.000001 -49.396030
v -0.000088 -0.000001 -57.852871
v -7.476226 -0.000001 -50.452126
v -15.188571 -0.000001 -41.108952
v 0.000000 -0.000001 -41.496086
v -7.893781 -0.000001 -31.984694
v -32.021381 -0.000001 -41.245388
v -22.451117 -0.000001 -31.984213
v 13.973767 -0.000001 -56.641949
v 7.476227 -0.000001 -50.452126
v 23.954912 -0.000001 -54.344517
v 21.088640 -0.000001 -49.329552
v 15.188571 -0.000001 -41.108952
v 30.849483 -0.000001 -41.258240
v 22.455479 -0.000001 -31.983555
v 7.893782 -0.000001 -31.984694
v 0.000000 -0.000001 -23.935129
v 15.188571 -0.000001 -24.322262
v 7.476227 -0.000001 -17.171831
v 28.322546 -0.000001 -24.604214
v 21.826191 -0.000001 -17.894754
v 14.111607 -0.000001 -11.244120
v 26.927471 -0.000001 -11.602217
v -0.002875 -0.000001 -10.342640
v -30.489220 -0.000001 -24.154091
v -15.188571 -0.000001 -24.322262
v -21.165207 -0.000001 -18.241703
v -7.476226 -0.000001 -17.171831
v -14.130848 -0.000001 -11.211020
v -26.052513 -0.000001 -12.213138
v 31.939402 9.836313 -17.961252
v 24.859669 17.694113 -13.933266
v 33.925392 8.457366 -32.136795
v 28.434473 16.902756 -25.925650
v 27.134909 21.993521 -19.501591
v 31.262533 21.381380 -32.010391
v 31.112635 27.785122 -25.968374
v 25.616144 27.534323 -13.947254
v 34.672012 10.319542 -49.094597
v 26.724491 16.397861 -37.216480
v 22.177605 16.646111 -49.889523
v 24.694981 21.965069 -42.522442
v 20.836483 26.606956 -47.519749
v 24.403349 26.582333 -36.612999
v 25.464041 32.424049 -31.540030
v 23.291029 31.486240 -42.339252
v 26.665434 36.614471 -36.743027
v 20.134163 35.885517 -46.569813
v 24.231527 41.531902 -41.669697
v 27.776285 40.803875 -31.154665
v 24.600681 32.262802 -20.173313
v 21.109077 35.893284 -15.661835
v 23.154770 36.573521 -25.928495
v 25.421118 39.517120 -20.747553
v -33.779171 10.489388 -50.918369
v -24.963604 18.282171 -54.722340
v -34.748943 9.017653 -32.705612
v -27.661577 16.860420 -40.083176
v -26.266552 23.382736 -46.604385
v -26.460287 22.130697 -31.872709
v -23.275192 26.762934 -37.918144
v -21.145197 26.974442 -49.659904
v -29.144094 8.722159 -18.626730
v -28.197357 17.179482 -25.227707
v -25.774809 16.954144 -11.921076
v -27.322861 22.378529 -20.040934
v -29.004303 27.855772 -10.408525
v -28.602861 27.283068 -25.907213
v -23.451788 31.867641 -31.739986
v -26.736948 31.122766 -19.505663
v -26.730127 36.131794 -26.428556
v -25.689503 33.547604 -13.085495
v -28.465311 39.508522 -20.613623
v -28.074812 40.503738 -31.805695
v -20.937504 31.606594 -42.601963
v -19.630730 36.004299 -46.707180
v -24.974268 36.109001 -37.244080
v -24.455715 40.888577 -41.988991
v -20.568130 -0.000001 -5.405021
v -22.935902 9.196897 -8.297824
v -16.819263 8.205320 -6.955766
v -5.831870 7.828278 -5.136057
v -5.452695 21.235529 -2.442973
v -16.174879 21.114464 -4.540685
v 5.819783 7.891765 -4.521997
v 18.878714 9.179773 -2.609816
v 15.811559 22.085857 -4.641648
v 4.742136 21.061501 -6.449005
v 4.646157 31.510378 -5.834807
v 14.235386 31.699991 -8.271550
v 17.367470 40.447338 -6.454725
v 5.871904 44.683643 0.280840
v -14.895268 30.591118 -6.613321
v -4.766841 31.598513 -5.603273
v -6.685084 44.810841 -0.877957
v -20.826897 42.881462 0.552206
v -20.910921 52.744347 -9.382799
v -5.834944 50.398327 -12.614147
v -6.270865 52.179409 -23.926998
v -24.698784 58.497135 -22.384068
v 5.856658 50.951820 -12.408048
v 23.100233 50.774708 -11.444112
v 23.100222 54.877960 -23.479773
v 6.227189 50.993465 -24.063686
v 6.083163 54.242214 -35.152740
v 22.738026 59.998325 -37.523594
v 19.080009 50.936035 -48.616894
v 8.718981 63.610142 -50.080196
v -24.818220 61.734955 -36.911663
v -5.691865 55.180191 -34.896076
v -7.608497 63.443298 -49.916138
v -19.375101 50.933598 -47.707840
v -14.212807 41.073723 -51.522739
v -5.630835 46.635937 -56.408154
v -5.376329 32.473358 -60.992245
v -14.702053 32.076527 -56.782398
v 6.332563 46.578789 -58.902462
v 14.823548 40.935188 -52.431187
v 14.341266 31.956318 -55.854618
v 5.058625 32.183563 -59.435684
v 4.772593 21.985399 -63.213253
v 15.355225 22.462168 -59.641159
v 19.076944 8.414819 -65.298653
v 6.777665 7.592119 -67.870331
v -14.701943 22.269970 -58.580433
v -4.916895 21.798750 -62.142159
v -6.447836 7.388587 -68.326118
v -19.582811 10.259556 -66.332008
v -21.062048 -0.000001 -56.930489
v -7.203277 -0.000001 -57.515659
v -7.754597 -0.000001 -41.367039
v -22.107502 -0.000001 -40.867065
v 7.223182 -0.000001 -57.571564
v 19.992771 -0.000001 -55.648952
v 22.023252 -0.000001 -40.856205
v 7.754598 -0.000001 -41.367039
v 7.754598 -0.000001 -24.064175
v 22.224188 -0.000001 -24.540653
v 21.329830 -0.000001 -11.207535
v 7.198882 -0.000001 -10.868973
v -22.089300 -0.000001 -24.562744
v -7.754597 -0.000001 -24.064175
v -7.198888 -0.000001 -10.818501
v -21.400835 -0.000001 -11.212428
v 28.464781 10.252603 -11.847084
v 37.474422 9.385420 -24.424622
v 31.287271 21.831800 -26.554777
v 26.404963 22.692926 -13.291348
v 35.018291 8.933186 -40.034077
v 29.865751 10.474297 -56.281631
v 20.792837 21.814541 -48.250961
v 26.257042 21.713118 -36.976990
v 25.536480 31.772594 -36.746613
v 21.213074 31.592060 -47.556511
v 20.909763 40.281258 -46.104233
v 26.381229 41.729904 -36.392315
v 21.698217 32.018631 -15.529408
v 24.464014 32.131058 -25.890472
v 25.795855 40.549576 -26.233437
v 22.685986 38.792839 -16.130024
v -28.136684 10.295122 -56.940807
v -34.272400 9.323031 -41.094292
v -26.132439 22.257151 -39.279743
v -22.701147 22.873816 -52.123741
v -33.979424 9.241633 -24.412960
v -27.132265 9.307996 -12.426538
v -28.754625 22.467255 -11.063584
v -28.281588 22.401785 -25.882315
v -26.589849 31.709507 -25.920530
v -25.768597 30.705153 -12.234681
v -30.022831 38.240089 -11.986773
v -26.692791 40.398746 -26.735430
v -21.055445 31.818058 -48.671608
v -22.347700 31.779499 -37.228344
v -26.414194 41.067795 -36.885143
v -21.797817 39.908859 -46.028343
vt 0.375000 0.000000
vt 0.406250 0.000000
vt 0.406250 0.031250
vt 0.375000 0.031250
vt 0.437500 0.000000
vt 0.437500 0.031250
vt 0.437500 0.062500
vt 0.406250 0.062500
vt 0.375000 0.062500
vt 0.468750 0.000000
vt 0.468750 0.031250
vt 0.500000 0.000000
vt 0.500000 0.031250
vt 0.500000 0.062500
vt 0.468750 0.062500
vt 0.468750 0.093750
vt 0.437500 0.093750
vt 0.500000 0.093750
vt 0.500000 0.125000
vt 0.468750 0.125000
vt 0.437500 0.125000
vt 0.406250 0.093750
vt 0.375000 0.093750
vt 0.406250 0.125000
vt 0.375000 0.125000
vt 0.531250 0.000000
vt 0.531250 0.031250
vt 0.562500 0.000000
vt 0.562500 0.031250
vt 0.562500 0.062500
vt 0.531250 0.062500
vt 0.593750 0.000000
vt 0.593750 0.031250
vt 0.625000 0.000000
vt 0.625000 0.031250
vt 0.625000 0.062500
vt 0.593750 0.062500
vt 0.593750 0.093750
vt 0.562500 0.093750
vt 0.625000 0.093750
vt 0.625000 0.125000
vt 0.593750 0.125000
vt 0.562500 0.125000
vt 0.531250 0.093750
vt 0.531250 0.125000
vt 0.531250 0.156250
vt 0.500000 0.156250
vt 0.562500 0.156250
vt 0.562500 0.187500
vt 0.531250 0.187500
vt 0.500000 0.187500
vt 0.593750 0.156250
vt 0.625000 0.156250
vt 0.625000 0.187500
vt 0.593750 0.187500
vt 0.593750 0.218750
vt 0.562500 0.218750
vt 0.625000 0.218750
vt 0.625000 0.250000
vt 0.593750 0.250000
vt 0.562500 0.250000
vt 0.531250 0.218750
vt 0.500000 0.218750
vt 0.531250 0.250000
vt 0.500000 0.250000
vt 0.406250 0.156250
vt 0.375000 0.156250
vt 0.437500 0.156250
vt 0.437500 0.187500
vt 0.406250 0.187500
vt 0.375000 0.187500
vt 0.468750 0.156250
vt 0.468750 0.187500
vt 0.468750 0.218750
vt 0.437500 0.218750
vt 0.468750 0.250000
vt 0.437500 0.250000
vt 0.406250 0.218750
vt 0.375000 0.218750
vt 0.406250 0.250000
vt 0.375000 0.250000
vt 0.406250 0.281250
vt 0.375000 0.281250
vt 0.437500 0.281250
vt 0.437500 0.312500
vt 0.406250 0.312500
vt 0.375000 0.312500
vt 0.468750 0.281250
vt 0.500000 0.281250
vt 0.500000 0.312500
vt 0.468750 0.312500
vt 0.468750 0.343750
vt 0.437500 0.343750
vt 0.500000 0.343750
vt 0.500000 0.375000
vt 0.468750 0.375000
vt 0.437500 0.375000
vt 0.406250 0.343750
vt 0.375000 0.343750
vt 0.406250 0.375000
vt 0.375000 0.375000
vt 0.531250 0.281250
vt 0.562500 0.281250
vt 0.562500 0.312500
vt 0.531250 0.312500
vt 0.593750 0.281250
vt 0.625000 0.281250
vt 0.625000 0.312500
vt 0.593750 0.312500
vt 0.593750 0.343750
vt 0.562500 0.343750
vt 0.625000 0.343750
vt 0.625000 0.375000
vt 0.593750 0.375000
vt 0.562500 0.375000
vt 0.531250 0.343750
vt 0.531250 0.375000
vt 0.531250 0.406250
vt 0.500000 0.406250
vt 0.562500 0.406250
vt 0.562500 0.437500
vt 0.531250 0.437500
vt 0.500000 0.437500
vt 0.593750 0.406250
vt 0.625000 0.406250
vt 0.625000 0.437500
vt 0.593750 0.437500
vt 0.593750 0.468750
vt 0.562500 0.468750
vt 0.625000 0.468750
vt 0.625000 0.500000
vt 0.593750 0.500000
vt 0.562500 0.500000
vt 0.531250 0.468750
vt 0.500000 0.468750
vt 0.531250 0.500000
vt 0.500000 0.500000
vt 0.406250 0.406250
vt 0.375000 0.406250
vt 0.437500 0.406250
vt 0.437500 0.437500
vt 0.406250 0.437500
vt 0.375000 0.437500
vt 0.468750 0.406250
vt 0.468750 0.437500
vt 0.468750 0.468750
vt 0.437500 0.468750
vt 0.468750 0.500000
vt 0.437500 0.500000
vt 0.406250 0.468750
vt 0.375000 0.468750
vt 0.406250 0.500000
vt 0.375000 0.500000
vt 0.406250 0.531250
vt 0.375000 0.531250
vt 0.437500 0.531250
vt 0.437500 0.562500
vt 0.406250 0.562500
vt 0.375000 0.562500
vt 0.468750 0.531250
vt 0.500000 0.531250
vt 0.500000 0.562500
vt 0.468750 0.562500
vt 0.468750 0.593750
vt 0.437500 0.593750
vt 0.500000 0.593750
vt 0.500000 0.625000
vt 0.468750 0.625000
vt 0.437500 0.625000
vt 0.406250 0.593750
vt 0.375000 0.593750
vt 0.406250 0.625000
vt 0.375000 0.625000
vt 0.531250 0.531250
vt 0.562500 0.531250
vt 0.562500 0.562500
vt 0.531250 0.562500
vt 0.593750 0.531250
vt 0.625000 0.531250
vt 0.625000 0.562500
vt 0.593750 0.562500
vt 0.593750 0.593750
vt 0.562500 0.593750
vt 0.625000 0.593750
vt 0.625000 0.625000
vt 0.593750 0.625000
vt 0.562500 0.625000
vt 0.531250 0.593750
vt 0.531250 0.625000
vt 0.531250 0.656250
vt 0.500000 0.656250
vt 0.562500 0.656250
vt 0.562500 0.687500
vt 0.531250 0.687500
vt 0.500000 0.687500
vt 0.593750 0.656250
vt 0.625000 0.656250
vt 0.625000 0.687500
vt 0.593750 0.687500
vt 0.593750 0.718750
vt 0.562500 0.718750
vt 0.625000 0.718750
vt 0.625000 0.750000
vt 0.593750 0.750000
vt 0.562500 0.750000
vt 0.531250 0.718750
vt 0.500000 0.718750
vt 0.531250 0.750000
vt 0.500000 0.750000
vt 0.406250 0.656250
vt 0.375000 0.656250
vt 0.437500 0.656250
vt 0.437500 0.687500
vt 0.406250 0.687500
vt 0.375000 0.687500
vt 0.468750 0.656250
vt 0.468750 0.687500
vt 0.468750 0.718750
vt 0.437500 0.718750
vt 0.468750 0.750000
vt 0.437500 0.750000
vt 0.406250 0.718750
vt 0.375000 0.718750
vt 0.406250 0.750000
vt 0.375000 0.750000
vt 0.406250 0.781250
vt 0.375000 0.781250
vt 0.437500 0.781250
vt 0.437500 0.812500
vt 0.406250 0.812500
vt 0.375000 0.812500
vt 0.468750 0.781250
vt 0.500000 0.781250
vt 0.500000 0.812500
vt 0.468750 0.812500
vt 0.468750 0.843750
vt 0.437500 0.843750
vt 0.500000 0.843750
vt 0.500000 0.875000
vt 0.468750 0.875000
vt 0.437500 0.875000
vt 0.406250 0.843750
vt 0.375000 0.843750
vt 0.406250 0.875000
vt 0.375000 0.875000
vt 0.531250 0.781250
vt 0.562500 0.781250
vt 0.562500 0.812500
vt 0.531250 0.812500
vt 0.593750 0.781250
vt 0.625000 0.781250
vt 0.625000 0.812500
vt 0.593750 0.812500
vt 0.593750 0.843750
vt 0.562500 0.843750
vt 0.625000 0.843750
vt 0.625000 0.875000
vt 0.593750 0.875000
vt 0.562500 0.875000
vt 0.531250 0.843750
vt 0.531250 0.875000
vt 0.531250 0.906250
vt 0.500000 0.906250
vt 0.562500 0.906250
vt 0.562500 0.937500
vt 0.531250 0.937500
vt 0.500000 0.937500
vt 0.593750 0.906250
vt 0.625000 0.906250
vt 0.625000 0.937500
vt 0.593750 0.937500
vt 0.593750 0.968750
vt 0.562500 0.968750
vt 0.625000 0.968750
vt 0.625000 1.000000
vt 0.593750 1.000000
vt 0.562500 1.000000
vt 0.531250 0.968750
vt 0.500000 0.968750
vt 0.531250 1.000000
vt 0.500000 1.000000
vt 0.406250 0.906250
vt 0.375000 0.906250
vt 0.437500 0.906250
vt 0.437500 0.937500
vt 0.406250 0.937500
vt 0.375000 0.937500
vt 0.468750 0.906250
vt 0.468750 0.937500
vt 0.468750 0.968750
vt 0.437500 0.968750
vt 0.468750 1.000000
vt 0.437500 1.000000
vt 0.406250 0.968750
vt 0.375000 0.968750
vt 0.406250 1.000000
vt 0.375000 1.000000
vt 0.656250 0.000000
vt 0.656250 0.031250
vt 0.687500 0.000000
vt 0.687500 0.031250
vt 0.687500 0.062500
vt 0.656250 0.062500
vt 0.718750 0.000000
vt 0.718750 0.031250
vt 0.750000 0.000000
vt 0.750000 0.031250
vt 0.750000 0.062500
vt 0.718750 0.062500
vt 0.718750 0.093750
vt 0.687500 0.093750
vt 0.750000 0.093750
vt 0.750000 0.125000
vt 0.718750 0.125000
vt 0.687500 0.125000
vt 0.656250 0.093750
vt 0.656250 0.125000
vt 0.781250 0.000000
vt 0.781250 0.031250
vt 0.812500 0.000000
vt 0.812500 0.031250
vt 0.812500 0.062500
vt 0.781250 0.062500
vt 0.843750 0.000000
vt 0.843750 0.031250
vt 0.875000 0.000000
vt 0.875000 0.031250
vt 0.875000 0.062500
vt 0.843750 0.062500
vt 0.843750 0.093750
vt 0.812500 0.093750
vt 0.875000 0.093750
vt 0.875000 0.125000
vt 0.843750 0.125000
vt 0.812500 0.125000
vt 0.781250 0.093750
vt 0.781250 0.125000
vt 0.781250 0.156250
vt 0.750000 0.156250
vt 0.812500 0.156250
vt 0.812500 0.187500
vt 0.781250 0.187500
vt 0.750000 0.187500
vt 0.843750 0.156250
vt 0.875000 0.156250
vt 0.875000 0.187500
vt 0.843750 0.187500
vt 0.843750 0.218750
vt 0.812500 0.218750
vt 0.875000 0.218750
vt 0.875000 0.250000
vt 0.843750 0.250000
vt 0.812500 0.250000
vt 0.781250 0.218750
vt 0.750000 0.218750
vt 0.781250 0.250000
vt 0.750000 0.250000
vt 0.656250 0.156250
vt 0.687500 0.156250
vt 0.687500 0.187500
vt 0.656250 0.187500
vt 0.718750 0.156250
vt 0.718750 0.187500
vt 0.718750 0.218750
vt 0.687500 0.218750
vt 0.718750 0.250000
vt 0.687500 0.250000
vt 0.656250 0.218750
vt 0.656250 0.250000
vt 0.125000 0.000000
vt 0.156250 0.000000
vt 0.156250 0.031250
vt 0.125000 0.031250
vt 0.187500 0.000000
vt 0.187500 0.031250
vt 0.187500 0.062500
vt 0.156250 0.062500
vt 0.125000 0.062500
vt 0.218750 0.000000
vt 0.218750 0.031250
vt 0.250000 0.000000
vt 0.250000 0.031250
vt 0.250000 0.062500
vt 0.218750 0.062500
vt 0.218750 0.093750
vt 0.187500 0.093750
vt 0.250000 0.093750
vt 0.250000 0.125000
vt 0.218750 0.125000
vt 0.187500 0.125000
vt 0.156250 0.093750
vt 0.125000 0.093750
vt 0.156250 0.125000
vt 0.125000 0.125000
vt 0.281250 0.000000
vt 0.281250 0.031250
vt 0.312500 0.000000
vt 0.312500 0.031250
vt 0.312500 0.062500
vt 0.281250 0.062500
vt 0.343750 0.000000
vt 0.343750 0.031250
vt 0.343750 0.062500
vt 0.343750 0.093750
vt 0.312500 0.093750
vt 0.343750 0.125000
vt 0.312500 0.125000
vt 0.281250 0.093750
vt 0.281250 0.125000
vt 0.281250 0.156250
vt 0.250000 0.156250
vt 0.312500 0.156250
vt 0.312500 0.187500
vt 0.281250 0.187500
vt 0.250000 0.187500
vt 0.343750 0.156250
vt 0.343750 0.187500
vt 0.343750 0.218750
vt 0.312500 0.218750
vt 0.343750 0.250000
vt 0.312500 0.250000
vt 0.281250 0.218750
vt 0.250000 0.218750
vt 0.281250 0.250000
vt 0.250000 0.250000
vt 0.156250 0.156250
vt 0.125000 0.156250
vt 0.187500 0.156250
vt 0.187500 0.187500
vt 0.156250 0.187500
vt 0.125000 0.187500
vt 0.218750 0.156250
vt 0.218750 0.187500
vt 0.218750 0.218750
vt 0.187500 0.218750
vt 0.218750 0.250000
vt 0.187500 0.250000
vt 0.156250 0.218750
vt 0.125000 0.218750
vt 0.156250 0.250000
vt 0.125000 0.250000
vn -0.601502 -0.209202 0.770993
vn -0.122845 -0.368098 0.921636
vn -0.043426 0.087004 0.995261
vn -0.515931 0.061234 0.854439
vn -0.011599 -0.549437 0.835455
vn -0.140231 0.045321 0.989081
vn -0.254826 -0.258005 0.931932
vn -0.090744 -0.233347 0.968150
vn -0.300048 -0.378297 0.875707
vn -0.123907 -0.611471 0.781505
vn -0.190152 -0.058994 0.979980
vn -0.017106 -0.627686 0.778279
vn -0.022535 -0.088738 0.995800
vn 0.062923 -0.152268 0.986334
vn -0.219603 -0.228044 0.948562
vn -0.229048 -0.256148 0.939109
vn -0.285579 -0.223401 0.931953
vn 0.272309 -0.191699 0.942921
vn 0.290184 0.184101 0.939095
vn -0.261348 0.274963 0.925253
vn -0.265099 0.285276 0.921054
vn 0.021499 -0.221819 0.974851
vn -0.420845 -0.230556 0.877344
vn -0.002026 0.316784 0.948496
vn -0.373077 0.389794 0.841947
vn -0.009249 -0.715309 0.698747
vn 0.069573 -0.037563 0.996869
vn -0.129405 -0.593372 0.794459
vn -0.098638 0.068506 0.992763
vn -0.008545 0.053241 0.998545
vn 0.226081 0.002238 0.974106
vn 0.126901 -0.575571 0.807845
vn 0.110199 0.235842 0.965523
vn 0.685233 -0.414700 0.598731
vn 0.630417 0.314453 0.709713
vn 0.533919 0.396814 0.746639
vn 0.243676 0.258831 0.934681
vn 0.380763 -0.086189 0.920647
vn -0.078002 0.060085 0.995141
vn 0.632953 -0.139156 0.761582
vn 0.674986 0.141368 0.724160
vn 0.259443 0.207253 0.943258
vn -0.069976 0.235694 0.969305
vn 0.432688 0.017524 0.901373
vn 0.570746 0.104469 0.814454
vn 0.589086 -0.039277 0.807116
vn 0.202078 0.056004 0.977767
vn 0.200011 0.092850 0.975384
vn 0.267164 -0.532682 0.803040
vn 0.345610 -0.435443 0.831230
vn 0.066764 -0.344535 0.936397
vn 0.118142 0.358209 0.926136
vn 0.589325 0.444806 0.674421
vn 0.655589 -0.028928 0.754564
vn 0.350364 -0.369343 0.860715
vn 0.259873 -0.544093 0.797765
vn 0.224368 -0.210761 0.951440
vn 0.420288 -0.781032 0.461896
vn 0.741812 -0.416435 0.525640
vn 0.517463 0.387362 0.763009
vn 0.195693 0.784818 0.588018
vn 0.189921 0.095986 0.977096
vn -0.056236 0.225099 0.972712
vn 0.039736 0.858240 0.511708
vn -0.104909 0.907096 0.407640
vn -0.016134 -0.299757 0.953879
vn -0.335240 0.116490 0.934903
vn -0.013825 -0.234993 0.971899
vn 0.139717 -0.281021 0.949477
vn -0.108183 -0.421016 0.900579
vn -0.542877 -0.591847 0.595821
vn -0.210972 -0.012701 0.977410
vn -0.146437 -0.310167 0.939336
vn -0.197962 0.310437 0.929753
vn 0.077284 0.340933 0.936905
vn -0.175192 0.890452 0.420003
vn 0.047718 0.859891 0.508242
vn -0.198066 0.160674 0.966930
vn -0.720496 -0.299118 0.625631
vn -0.097669 0.708423 0.698998
vn -0.632017 0.346040 0.693405
vn -0.025796 0.877882 0.478183
vn -0.872954 0.284621 0.396160
vn 0.220289 0.944354 0.244273
vn 0.326275 0.930893 0.164266
vn -0.153461 0.950797 0.269138
vn -0.959942 0.278934 0.026608
vn -0.081070 0.994457 0.066954
vn -0.042785 0.999080 -0.002953
vn 0.036689 0.993332 0.109300
vn -0.052535 0.987011 0.151823
vn 0.008909 0.988504 0.150935
vn 0.366158 0.900746 0.233633
vn 0.065203 0.993512 0.093183
vn 0.056259 0.976370 0.208656
vn 0.196882 0.919528 0.340154
vn 0.364509 0.835784 0.410608
vn -0.212433 0.943175 0.255524
vn -0.977657 0.209459 0.017702
vn -0.344774 0.884716 0.313702
vn -0.986011 0.162609 0.036607
vn -0.046336 0.998335 -0.034356
vn 0.013859 0.992780 0.119150
vn -0.145127 0.983933 0.103987
vn -0.017584 0.999200 0.035920
vn 0.404061 0.860463 0.310385
vn 0.948315 -0.051324 0.313154
vn 0.969499 0.208263 0.129225
vn 0.275556 0.937277 0.213495
vn 0.245410 0.948223 0.201612
vn -0.268197 0.946416 0.179908
vn 0.974810 0.222777 0.010733
vn 0.973146 0.230185 -0.001368
vn 0.324889 0.904825 0.275206
vn -0.302352 0.880707 0.364607
vn 0.030330 0.996333 0.080007
vn -0.022301 0.954071 0.298750
vn -0.037542 0.748770 0.661766
vn 0.037299 0.742740 0.668540
vn -0.189359 0.852744 0.486797
vn 0.320466 0.945884 0.051040
vn 0.143654 0.884589 0.443696
vn 0.017785 0.819296 0.573095
vn 0.513675 0.857316 0.033887
vn 0.948010 0.226242 -0.223810
vn 0.872766 0.152957 -0.463556
vn 0.636608 0.648705 -0.417027
vn 0.652447 0.376849 -0.657494
vn 0.583095 0.586233 -0.562434
vn 0.783013 0.057447 -0.619347
vn 0.614761 -0.101681 -0.782132
vn 0.592674 0.091216 -0.800260
vn 0.579955 0.225725 -0.782752
vn 0.300656 0.859496 -0.413368
vn -0.059757 0.944203 -0.323898
vn 0.283974 0.431279 -0.856363
vn -0.166400 0.473589 -0.864884
vn -0.592906 0.804561 0.033835
vn -0.926580 0.124962 -0.354731
vn 0.212492 0.844679 0.491289
vn -0.257561 0.956332 -0.138171
vn -0.721071 0.443177 -0.532589
vn -0.797897 0.073744 -0.598266
vn 0.264965 0.726543 0.633978
vn 0.204595 0.888858 0.409966
vn -0.116382 0.765809 -0.632448
vn -0.378289 0.374185 -0.846689
vn -0.382023 0.283008 -0.879753
vn -0.361203 0.205996 -0.909450
vn -0.614888 0.227118 -0.755202
vn -0.768292 0.035213 -0.639130
vn -0.452423 0.087616 -0.887489
vn -0.656529 -0.116651 -0.745226
vn -0.465855 0.135683 -0.874397
vn -0.648852 0.040432 -0.759839
vn -0.514792 0.209132 -0.831416
vn -0.567792 0.296926 -0.767755
vn -0.432521 0.455560 -0.778069
vn -0.641130 0.502005 -0.580468
vn -0.511193 0.264234 -0.817840
vn -0.170212 0.258544 -0.950885
vn -0.060728 0.147904 -0.987136
vn -0.439108 0.234939 -0.867173
vn -0.389153 0.216265 -0.895427
vn -0.445547 0.280569 -0.850158
vn 0.105128 0.201101 -0.973913
vn 0.086382 0.250886 -0.964155
vn -0.457538 0.096572 -0.883931
vn -0.346825 0.065990 -0.935605
vn -0.320348 0.423707 -0.847260
vn -0.737473 0.371644 -0.563928
vn -0.270393 0.147193 -0.951431
vn -0.751997 0.198111 -0.628691
vn 0.287886 0.143968 -0.946781
vn 0.546617 0.008424 -0.837340
vn 0.526502 0.095506 -0.844793
vn 0.299646 0.061282 -0.952080
vn 0.596933 -0.085891 -0.797681
vn 0.666768 -0.247333 -0.703027
vn 0.736525 0.144704 -0.660751
vn 0.676236 0.172536 -0.716195
vn 0.637654 0.299102 -0.709884
vn 0.394396 0.199969 -0.896920
vn 0.763687 0.280751 -0.581344
vn 0.829823 0.229203 -0.508783
vn 0.587604 0.344977 -0.731924
vn 0.294143 0.341427 -0.892696
vn 0.322432 0.151526 -0.934386
vn 0.317619 0.313027 -0.895060
vn 0.291725 0.169623 -0.941342
vn 0.028972 0.143324 -0.989252
vn 0.298991 0.199416 -0.933187
vn 0.229086 0.393960 -0.890121
vn 0.170878 0.330027 -0.928377
vn 0.058182 0.304894 -0.950608
vn 0.564997 0.194725 -0.801786
vn 0.848446 0.184596 -0.496048
vn 0.599462 0.576436 -0.555308
vn 0.422929 0.464666 -0.777957
vn 0.432819 0.247762 -0.866765
vn 0.210770 0.148570 -0.966180
vn 0.664275 0.345578 -0.662808
vn 0.665022 -0.495763 -0.558538
vn 0.374226 -0.677572 -0.633128
vn 0.161319 -0.752112 -0.638986
vn 0.089026 0.087381 -0.992189
vn 0.067520 0.048627 -0.996532
vn 0.035623 -0.801529 -0.596894
vn 0.032430 -0.823176 -0.566860
vn -0.213808 0.234949 -0.948201
vn -0.569360 0.311363 -0.760843
vn -0.333883 0.291427 -0.896433
vn -0.178829 0.561437 -0.807966
vn -0.252050 0.585628 -0.770396
vn -0.452975 0.527116 -0.719001
vn -0.397940 0.205511 -0.894097
vn -0.077229 0.417697 -0.905298
vn 0.024436 0.043351 -0.998761
vn -0.164529 0.131457 -0.977573
vn 0.007313 -0.795908 -0.605374
vn -0.120966 -0.754381 -0.645194
vn -0.351276 0.285658 -0.891630
vn -0.585066 0.342111 -0.735294
vn -0.306098 -0.649767 -0.695778
vn -0.617665 -0.382569 -0.687118
vn 0.000000 -1.000000 -0.000000
vn -0.719870 -0.530608 -0.447485
vn 0.000000 -1.000000 -0.000000
vn 0.000000 -1.000000 -0.000000
vn 0.000000 -1.000000 -0.000000
vn -0.644079 -0.740495 -0.191911
vn 0.000000 -1.000000 -0.000000
vn 0.000000 -1.000000 -0.000000
vn 0.000000 -1.000000 0.000000
vn 0.000000 -1.000000 -0.000000
vn 0.000000 -1.000000 -0.000000
vn 0.000000 -1.000000 -0.000000
vn 0.000000 -1.000000 0.000000
vn 0.000000 -1.000000 -0.000000
vn 0.000000 -1.000000 0.000000
vn 0.000000 -1.000000 0.000000
vn 0.000000 -1.000000 0.000000
vn -0.648239 -0.759271 -0.057395
vn 0.000000 -1.000000 0.000000
vn -0.612146 -0.789935 0.035765
vn 0.000000 -1.000000 -0.000000
vn 0.000000 -1.000000 -0.000000
vn 0.000000 -1.000000 -0.000000
vn 0.000000 -1.000000 -0.000000
vn 0.000000 -1.000000 -0.000000
vn 0.615700 -0.684991 -0.389488
vn 0.578428 -0.768020 -0.274893
vn 0.000000 -1.000000 -0.000000
vn 0.000000 -1.000000 -0.000000
vn 0.000000 -1.000000 -0.000000
vn 0.601831 -0.790886 -0.110901
vn 0.619145 -0.785212 0.010068
vn 0.000000 -1.000000 0.000000
vn 0.000000 -1.000000 0.000000
vn 0.000000 -1.000000 0.000000
vn 0.000000 -1.000000 0.000000
vn 0.000000 -1.000000 -0.000000
vn 0.000000 -1.000000 -0.000000
vn 0.000000 -1.000000 0.000000
vn 0.000000 -1.000000 0.000000
vn 0.000000 -1.000000 -0.000000
vn 0.000000 -1.000000 0.000000
vn 0.000000 -1.000000 0.000000
vn 0.509262 -0.851091 0.127658
vn 0.671366 -0.684761 0.283497
vn 0.000000 -1.000000 0.000000
vn 0.000000 -1.000000 -0.000000
vn 0.000000 -1.000000 -0.000000
vn 0.767219 -0.551045 0.328215
vn 0.000000 -1.000000 0.000000
vn 0.000000 -1.000000 0.000000
vn 0.000000 -1.000000 -0.000000
vn -0.643086 -0.732809 0.222331
vn 0.000000 -1.000000 0.000000
vn 0.000000 -1.000000 0.000000
vn 0.000000 -1.000000 0.000000
vn -0.674842 -0.669765 0.309844
vn 0.000000 -1.000000 0.000000
vn 0.000000 -1.000000 0.000000
vn 0.000000 -1.000000 0.000000
vn 0.000000 -1.000000 0.000000
vn 0.000000 -1.000000 0.000000
vn -0.771026 -0.530156 0.352780
vn 0.877324 0.227379 0.422613
vn 0.909335 0.123600 0.397281
vn 0.860427 0.355507 0.365076
vn 0.781293 0.366524 0.505215
vn 0.987397 0.069193 0.142339
vn 0.991200 0.112544 -0.069686
vn 0.883498 0.423578 -0.200031
vn 0.897476 0.422176 0.127687
vn 0.947314 -0.215095 0.237340
vn 0.921725 -0.169953 0.348624
vn 0.917032 -0.145008 -0.371516
vn 0.850213 0.401788 -0.340154
vn 0.879840 0.420266 0.221940
vn 0.869928 0.347255 0.350197
vn 0.792234 -0.108963 0.600410
vn 0.794381 0.274796 0.541707
vn 0.977907 0.180455 -0.105519
vn 0.911825 0.242784 -0.331104
vn 0.681184 0.704223 -0.200147
vn 0.805300 0.575890 -0.140869
vn 0.789273 0.305113 -0.532874
vn 0.612593 0.702888 -0.361494
vn 0.893097 0.181860 -0.411466
vn 0.911042 0.185485 -0.368237
vn 0.887916 0.109222 -0.446851
vn 0.930647 0.091654 -0.354253
vn 0.845005 0.072697 -0.529793
vn 0.836407 0.174185 -0.519695
vn 0.928376 0.050673 -0.368173
vn 0.884644 0.465635 -0.024265
vn 0.915447 -0.009517 -0.402326
vn 0.869831 -0.021083 -0.492900
vn 0.961362 -0.111472 -0.251708
vn 0.963983 -0.181921 0.194016
vn 0.835809 0.157952 -0.525808
vn 0.798784 0.079534 -0.596337
vn 0.807514 -0.297010 -0.509614
vn 0.888502 -0.217229 -0.404198
vn 0.954333 -0.150508 -0.258062
vn 0.968206 -0.249512 0.017897
vn 0.782881 0.447438 0.432316
vn 0.782523 0.567360 0.256438
vn 0.975031 -0.105053 0.195651
vn 0.875798 0.032262 0.481598
vn 0.783548 0.605773 0.138172
vn 0.975190 -0.170665 0.140988
vn 0.891957 -0.452111 -0.002864
vn 0.797760 -0.602255 -0.029441
vn 0.662932 -0.732679 0.153956
vn -0.794228 0.251003 -0.553353
vn -0.950700 0.186354 -0.247874
vn -0.817125 0.549278 -0.174929
vn -0.665230 0.512532 -0.542936
vn -0.984808 0.169577 -0.037371
vn -0.986050 0.164941 0.022339
vn -0.851776 0.522737 -0.034980
vn -0.847406 0.530598 0.019208
vn -0.904863 0.424929 -0.025653
vn -0.835675 0.529253 -0.146760
vn -0.946342 0.269994 -0.177598
vn -0.901394 0.290908 -0.320720
vn -0.895187 0.419971 -0.149216
vn -0.871792 0.474058 -0.123481
vn -0.753272 0.493531 -0.434751
vn -0.911027 0.343083 -0.228745
vn -0.956098 0.134661 0.260274
vn -0.915382 0.076770 0.395198
vn -0.963888 0.123837 0.235762
vn -0.902053 0.401916 0.157368
vn -0.914282 0.057375 0.400994
vn -0.924544 -0.174676 0.338684
vn -0.933296 -0.287525 0.215149
vn -0.977607 -0.209056 0.024095
vn -0.908877 0.314838 0.273531
vn -0.986975 0.160541 -0.010308
vn -0.994036 0.012079 -0.108378
vn -0.951799 0.176647 -0.250749
vn -0.965190 0.140489 -0.220616
vn -0.939994 -0.106049 -0.324293
vn -0.914703 0.402222 0.039184
vn -0.958408 -0.277640 -0.066115
vn -0.975292 -0.212011 -0.062104
vn -0.919215 -0.347008 -0.186092
vn -0.781598 0.560995 0.272745
vn -0.874675 -0.472057 0.110032
vn -0.938171 -0.327490 0.112185
vn -0.953361 -0.226487 -0.199517
vn -0.982888 -0.181808 -0.029607
vn -0.976829 -0.212410 -0.026229
vn -0.972716 0.194277 -0.126806
vn -0.970809 0.107726 -0.214300
vn -0.894990 -0.260217 -0.362327
vn -0.958409 0.077092 -0.274789
vn -0.946067 -0.068195 -0.316712
vn -0.835106 -0.381119 -0.396670
vn -0.897839 -0.248497 -0.363502
vn -0.834052 -0.263557 -0.484659
vn -0.812499 -0.237050 -0.532591
s 1
g pedestal
f 1/1/1 289/2/2 291/3/3 290/4/4
f 289/2/2 73/5/5 99/6/6 291/3/3
f 291/3/3 99/6/6 75/7/7 100/8/8
f 290/4/4 291/3/3 100/8/8 74/9/9
f 73/5/5 101/10/10 292/11/11 99/6/6
f 101/10/10 19/12/12 102/13/13 292/11/11
f 292/11/11 102/13/13 27/14/14 103/15/15
f 99/6/6 292/11/11 103/15/15 75/7/7
f 75/7/7 103/15/15 293/16/16 104/17/17
f 103/15/15 27/14/14 105/18/18 293/16/16
f 293/16/16 105/18/18 21/19/19 106/20/20
f 104/17/17 293/16/16 106/20/20 28/21/21
f 74/9/9 100/8/8 294/22/22 107/23/23
f 100/8/8 75/7/7 104/17/17 294/22/22
f 294/22/22 104/17/17 28/21/21 108/24/24
f 107/23/23 294/22/22 108/24/24 20/25/25
f 19/12/12 109/26/26 295/27/27 102/13/13
f 109/26/26 29/28/28 110/29/29 295/27/27
f 295/27/27 110/29/29 76/30/30 111/31/31
f 102/13/13 295/27/27 111/31/31 27/14/14
f 29/28/28 112/32/32 296/33/33 110/29/29
f 112/32/32 2/34/34 113/35/35 296/33/33
f 296/33/33 113/35/35 30/36/36 114/37/37
f 110/29/29 296/33/33 114/37/37 76/30/30
f 76/30/30 114/37/37 297/38/38 115/39/39
f 114/37/37 30/36/36 116/40/40 297/38/38
f 297/38/38 116/40/40 9/41/41 117/42/42
f 115/39/39 297/38/38 117/42/42 31/43/43
f 27/14/14 111/31/31 298/44/44 105/18/18
f 111/31/31 76/30/30 115/39/39 298/44/44
f 298/44/44 115/39/39 31/43/43 118/45/45
f 105/18/18 298/44/44 118/45/45 21/19/19
f 21/19/19 118/45/45 299/46/46 119/47/47
f 118/45/45 31/43/43 120/48/48 299/46/46
f 299/46/46 120/48/48 77/49/49 121/50/50
f 119/47/47 299/46/46 121/50/50 32/51/51
f 31/43/43 117/42/42 300/52/52 120/48/48
f 117/42/42 9/41/41 122/53/53 300/52/52
f 300/52/52 122/53/53 33/54/54 123/55/55
f 120/48/48 300/52/52 123/55/55 77/49/49
f 77/49/49 123/55/55 301/56/56 124/57/57
f 123/55/55 33/54/54 125/58/58 301/56/56
f 301/56/56 125/58/58 4/59/59 126/60/60
f 124/57/57 301/56/56 126/60/60 34/61/61
f 32/51/51 121/50/50 302/62/62 127/63/63
f 121/50/50 77/49/49 124/57/57 302/62/62
f 302/62/62 124/57/57 34/61/61 128/64/64
f 127/63/63 302/62/62 128/64/64 10/65/65
f 20/25/25 108/24/24 303/66/66 129/67/67
f 108/24/24 28/21/21 130/68/68 303/66/66
f 303/66/66 130/68/68 78/69/69 131/70/70
f 129/67/67 303/66/66 131/70/70 35/71/71
f 28/21/21 106/20/20 304/72/72 130/68/68
f 106/20/20 21/19/19 119/47/47 304/72/72
f 304/72/72 119/47/47 32/51/51 132/73/73
f 130/68/68 304/72/72 132/73/73 78/69/69
f 78/69/69 132/73/73 305/74/74 133/75/75
f 132/73/73 32/51/51 127/63/63 305/74/74
f 305/74/74 127/63/63 10/65/65 134/76/76
f 133/75/75 305/74/74 134/76/76 36/77/77
f 35/71/71 131/70/70 306/78/78 135/79/79
f 131/70/70 78/69/69 133/75/75 306/78/78
f 306/78/78 133/75/75 36/77/77 136/80/80
f 135/79/79 306/78/78 136/80/80 3/81/81
f 3/81/81 136/80/80 307/82/82 137/83/83
f 136/80/80 36/77/77 138/84/84 307/82/82
f 307/82/82 138/84/84 79/85/85 139/86/86
f 137/83/83 307/82/82 139/86/86 37/87/87
f 36/77/77 134/76/76 308/88/88 138/84/84
f 134/76/76 10/65/65 140/89/89 308/88/88
f 308/88/88 140/89/89 38/90/90 141/91/91
f 138/84/84 308/88/88 141/91/91 79/85/85
f 79/85/85 141/91/91 309/92/92 142/93/93
f 141/91/91 38/90/90 143/94/94 309/92/92
f 309/92/92 143/94/94 22/95/95 144/96/96
f 142/93/93 309/92/92 144/96/96 39/97/97
f 37/87/87 139/86/86 310/98/98 145/99/99
f 139/86/86 79/85/85 142/93/93 310/98/98
f 310/98/98 142/93/93 39/97/97 146/100/100
f 145/99/99 310/98/98 146/100/100 11/101/101
f 10/65/65 128/64/64 311/102/102 140/89/89
f 128/64/64 34/61/61 147/103/103 311/102/102
f 311/102/102 147/103/103 80/104/104 148/105/105
f 140/89/89 311/102/102 148/105/105 38/90/90
f 34/61/61 126/60/60 312/106/106 147/103/103
f 126/60/60 4/59/59 149/107/107 312/106/106
f 312/106/106 149/107/107 40/108/108 150/109/109
f 147/103/103 312/106/106 150/109/109 80/104/104
f 80/104/104 150/109/109 313/110/110 151/111/111
f 150/109/109 40/108/108 152/112/112 313/110/110
f 313/110/110 152/112/112 12/113/113 153/114/114
f 151/111/111 313/110/110 153/114/114 41/115/115
f 38/90/90 148/105/105 314/116/116 143/94/94
f 148/105/105 80/104/104 151/111/111 314/116/116
f 314/116/116 151/111/111 41/115/115 154/117/117
f 143/94/94 314/116/116 154/117/117 22/95/95
f 22/95/95 154/117/117 315/118/118 155/119/119
f 154/117/117 41/115/115 156/120/120 315/118/118
f 315/118/118 156/120/120 81/121/121 157/122/122
f 155/119/119 315/118/118 157/122/122 42/123/123
f 41/115/115 153/114/114 316/124/124 156/120/120
f 153/114/114 12/113/113 158/125/125 316/124/124
f 316/124/124 158/125/125 43/126/126 159/127/127
f 156/120/120 316/124/124 159/127/127 81/121/121
f 81/121/121 159/127/127 317/128/128 160/129/129
f 159/127/127 43/126/126 161/130/130 317/128/128
f 317/128/128 161/130/130 6/131/131 162/132/132
f 160/129/129 317/128/128 162/132/132 44/133/133
f 42/123/123 157/122/122 318/134/134 163/135/135
f 157/122/122 81/121/121 160/129/129 318/134/134
f 318/134/134 160/129/129 44/133/133 164/136/136
f 163/135/135 318/134/134 164/136/136 13/137/137
f 11/101/101 146/100/100 319/138/138 165/139/139
f 146/100/100 39/97/97 166/140/140 319/138/138
f 319/138/138 166/140/140 82/141/141 167/142/142
f 165/139/139 319/138/138 167/142/142 45/143/143
f 39/97/97 144/96/96 320/144/144 166/140/140
f 144/96/96 22/95/95 155/119/119 320/144/144
f 320/144/144 155/119/119 42/123/123 168/145/145
f 166/140/140 320/144/144 168/145/145 82/141/141
f 82/141/141 168/145/145 321/146/146 169/147/147
f 168/145/145 42/123/123 163/135/135 321/146/146
f 321/146/146 163/135/135 13/137/137 170/148/148
f 169/147/147 321/146/146 170/148/148 46/149/149
f 45/143/143 167/142/142 322/150/150 171/151/151
f 167/142/142 82/141/141 169/147/147 322/150/150
f 322/150/150 169/147/147 46/149/149 172/152/152
f 171/151/151 322/150/150 172/152/152 5/153/153
f 5/153/153 172/152/152 323/154/154 173/155/155
f 172/152/152 46/149/149 174/156/156 323/154/154
f 323/154/154 174/156/156 83/157/157 175/158/158
f 173/155/155 323/154/154 175/158/158 47/159/159
f 46/149/149 170/148/148 324/160/160 174/156/156
f 170/148/148 13/137/137 176/161/161 324/160/160
f 324/160/160 176/161/161 48/162/162 177/163/163
f 174/156/156 324/160/160 177/163/163 83/157/157
f 83/157/157 177/163/163 325/164/164 178/165/165
f 177/163/163 48/162/162 179/166/166 325/164/164
f 325/164/164 179/166/166 23/167/167 180/168/168
f 178/165/165 325/164/164 180/168/168 49/169/169
f 47/159/159 175/158/158 326/170/170 181/171/171
f 175/158/158 83/157/157 178/165/165 326/170/170
f 326/170/170 178/165/165 49/169/169 182/172/172
f 181/171/171 326/170/170 182/172/172 14/173/173
f 13/137/137 164/136/136 327/174/174 176/161/161
f 164/136/136 44/133/133 183/175/175 327/174/174
f 327/174/174 183/175/175 84/176/176 184/177/177
f 176/161/161 327/174/174 184/177/177 48/162/162
f 44/133/133 162/132/132 328/178/178 183/175/175
f 162/132/132 6/131/131 185/179/179 328/178/178
f 328/178/178 185/179/179 50/180/180 186/181/181
f 183/175/175 328/178/178 186/181/181 84/176/176
f 84/176/176 186/181/181 329/182/182 187/183/183
f 186/181/181 50/180/180 188/184/184 329/182/182
f 329/182/182 188/184/184 15/185/185 189/186/186
f 187/183/183 329/182/182 189/186/186 51/187/187
f 48/162/162 184/177/177 330/188/188 179/166/166
f 184/177/177 84/176/176 187/183/183 330/188/188
f 330/188/188 187/183/183 51/187/187 190/189/189
f 179/166/166 330/188/188 190/189/189 23/167/167
f 23/167/167 190/189/189 331/190/190 191/191/191
f 190/189/189 51/187/187 192/192/192 331/190/190
f 331/190/190 192/192/192 85/193/193 193/194/194
f 191/191/191 331/190/190 193/194/194 52/195/195
f 51/187/187 189/186/186 332/196/196 192/192/192
f 189/186/186 15/185/185 194/197/197 332/196/196
f 332/196/196 194/197/197 53/198/198 195/199/199
f 192/192/192 332/196/196 195/199/199 85/193/193
f 85/193/193 195/199/199 333/200/200 196/201/201
f 195/199/199 53/198/198 197/202/202 333/200/200
f 333/200/200 197/202/202 8/203/203 198/204/204
f 196/201/201 333/200/200 198/204/204 54/205/205
f 52/195/195 193/194/194 334/206/206 199/207/207
f 193/194/194 85/193/193 196/201/201 334/206/206
f 334/206/206 196/201/201 54/205/205 200/208/208
f 199/207/207 334/206/206 200/208/208 16/209/209
f 14/173/173 182/172/172 335/210/210 201/211/211
f 182/172/172 49/169/169 202/212/212 335/210/210
f 335/210/210 202/212/212 86/213/213 203/214/214
f 201/211/211 335/210/210 203/214/214 55/215/215
f 49/169/169 180/168/168 336/216/216 202/212/212
f 180/168/168 23/167/167 191/191/191 336/216/216
f 336/216/216 191/191/191 52/195/195 204/217/217
f 202/212/212 336/216/216 204/217/217 86/213/213
f 86/213/213 204/217/217 337/218/218 205/219/219
f 204/217/217 52/195/195 199/207/207 337/218/218
f 337/218/218 199/207/207 16/209/209 206/220/220
f 205/219/219 337/218/218 206/220/220 56/221/221
f 55/215/215 203/214/214 338/222/222 207/223/223
f 203/214/214 86/213/213 205/219/219 338/222/222
f 338/222/222 205/219/219 56/221/221 208/224/224
f 207/223/223 338/222/222 208/224/224 7/225/225
f 7/225/225 208/224/224 339/226/226 209/227/227
f 208/224/224 56/221/221 210/228/228 339/226/226
f 339/226/226 210/228/228 87/229/229 211/230/230
f 209/227/227 339/226/226 211/230/230 57/231/231
f 56/221/221 206/220/220 340/232/232 210/228/228
f 206/220/220 16/209/209 212/233/233 340/232/232
f 340/232/232 212/233/233 58/234/234 213/235/235
f 210/228/228 340/232/232 213/235/235 87/229/229
f 87/229/229 213/235/235 341/236/236 214/237/237
f 213/235/235 58/234/234 215/238/238 341/236/236
f 341/236/236 215/238/238 24/239/239 216/240/240
f 214/237/237 341/236/236 216/240/240 59/241/241
f 57/231/231 211/230/230 342/242/242 217/243/243
f 211/230/230 87/229/229 214/237/237 342/242/242
f 342/242/242 214/237/237 59/241/241 218/244/244
f 217/243/243 342/242/242 218/244/244 17/245/245
f 16/209/209 200/208/208 343/246/246 212/233/233
f 200/208/208 54/205/205 219/247/247 343/246/246
f 343/246/246 219/247/247 88/248/248 220/249/249
f 212/233/233 343/246/246 220/249/249 58/234/234
f 54/205/205 198/204/204 344/250/250 219/247/247
f 198/204/204 8/203/203 221/251/251 344/250/250
f 344/250/250 221/251/251 60/252/252 222/253/253
f 219/247/247 344/250/250 222/253/253 88/248/248
f 88/248/248 222/253/253 345/254/254 223/255/255
f 222/253/253 60/252/252 224/256/256 345/254/254
f 345/254/254 224/256/256 18/257/257 225/258/258
f 223/255/255 345/254/254 225/258/258 61/259/259
f 58/234/234 220/249/249 346/260/260 215/238/238
f 220/249/249 88/248/248 223/255/255 346/260/260
f 346/260/260 223/255/255 61/259/259 226/261/261
f 215/238/238 346/260/260 226/261/261 24/239/239
f 24/239/239 226/261/261 347/262/262 227/263/263
f 226/261/261 61/259/259 228/264/264 347/262/262
f 347/262/262 228/264/264 89/265/265 229/266/266
f 227/263/263 347/262/262 229/266/266 62/267/267
f 61/259/259 225/258/258 348/268/268 228/264/264
f 225/258/258 18/257/257 230/269/269 348/268/268
f 348/268/268 230/269/269 63/270/270 231/271/271
f 228/264/264 348/268/268 231/271/271 89/265/265
f 89/265/265 231/271/271 349/272/272 232/273/273
f 231/271/271 63/270/270 233/274/274 349/272/272
f 349/272/272 233/274/274 2/275/34 112/276/32
f 232/273/273 349/272/272 112/276/32 29/277/28
f 62/267/267 229/266/266 350/278/275 234/279/276
f 229/266/266 89/265/265 232/273/273 350/278/275
f 350/278/275 232/273/273 29/277/28 109/280/26
f 234/279/276 350/278/275 109/280/26 19/281/12
f 17/245/245 218/244/244 351/282/277 235/283/278
f 218/244/244 59/241/241 236/284/279 351/282/277
f 351/282/277 236/284/279 90/285/280 237/286/281
f 235/283/278 351/282/277 237/286/281 64/287/282
f 59/241/241 216/240/240 352/288/283 236/284/279
f 216/240/240 24/239/239 227/263/263 352/288/283
f 352/288/283 227/263/263 62/267/267 238/289/284
f 236/284/279 352/288/283 238/289/284 90/285/280
f 90/285/280 238/289/284 353/290/285 239/291/286
f 238/289/284 62/267/267 234/279/276 353/290/285
f 353/290/285 234/279/276 19/281/12 101/292/10
f 239/291/286 353/290/285 101/292/10 73/293/5
f 64/287/282 237/286/281 354/294/287 240/295/288
f 237/286/281 90/285/280 239/291/286 354/294/287
f 354/294/287 239/291/286 73/293/5 289/296/2
f 240/295/288 354/294/287 289/296/2 1/297/1
f 2/34/34 233/298/274 355/299/289 113/35/35
f 233/298/274 63/300/270 241/301/290 355/299/289
f 355/299/289 241/301/290 91/302/291 242/303/292
f 113/35/35 355/299/289 242/303/292 30/36/36
f 63/300/270 230/304/269 356/305/293 241/301/290
f 230/304/269 18/306/257 243/307/294 356/305/293
f 356/305/293 243/307/294 65/308/295 244/309/296
f 241/301/290 356/305/293 244/309/296 91/302/291
f 91/302/291 244/309/296 357/310/297 245/311/298
f 244/309/296 65/308/295 246/312/299 357/310/297
f 357/310/297 246/312/299 25/313/300 247/314/301
f 245/311/298 357/310/297 247/314/301 66/315/302
f 30/36/36 242/303/292 358/316/303 116/40/40
f 242/303/292 91/302/291 245/311/298 358/316/303
f 358/316/303 245/311/298 66/315/302 248/317/304
f 116/40/40 358/316/303 248/317/304 9/41/41
f 18/306/257 224/318/256 359/319/305 243/307/294
f 224/318/256 60/320/252 249/321/306 359/319/305
f 359/319/305 249/321/306 92/322/307 250/323/308
f 243/307/294 359/319/305 250/323/308 65/308/295
f 60/320/252 221/324/251 360/325/309 249/321/306
f 221/324/251 8/326/203 197/327/202 360/325/309
f 360/325/309 197/327/202 53/328/198 251/329/310
f 249/321/306 360/325/309 251/329/310 92/322/307
f 92/322/307 251/329/310 361/330/311 252/331/312
f 251/329/310 53/328/198 194/332/197 361/330/311
f 361/330/311 194/332/197 15/333/185 253/334/313
f 252/331/312 361/330/311 253/334/313 67/335/314
f 65/308/295 250/323/308 362/336/315 246/312/299
f 250/323/308 92/322/307 252/331/312 362/336/315
f 362/336/315 252/331/312 67/335/314 254/337/316
f 246/312/299 362/336/315 254/337/316 25/313/300
f 25/313/300 254/337/316 363/338/317 255/339/318
f 254/337/316 67/335/314 256/340/319 363/338/317
f 363/338/317 256/340/319 93/341/320 257/342/321
f 255/339/318 363/338/317 257/342/321 68/343/322
f 67/335/314 253/334/313 364/344/323 256/340/319
f 253/334/313 15/333/185 188/345/184 364/344/323
f 364/344/323 188/345/184 50/346/180 258/347/324
f 256/340/319 364/344/323 258/347/324 93/341/320
f 93/341/320 258/347/324 365/348/325 259/349/326
f 258/347/324 50/346/180 185/350/179 365/348/325
f 365/348/325 185/350/179 6/351/131 161/352/130
f 259/349/326 365/348/325 161/352/130 43/353/126
f 68/343/322 257/342/321 366/354/327 260/355/328
f 257/342/321 93/341/320 259/349/326 366/354/327
f 366/354/327 259/349/326 43/353/126 158/356/125
f 260/355/328 366/354/327 158/356/125 12/357/113
f 9/41/41 248/317/304 367/358/329 122/53/53
f 248/317/304 66/315/302 261/359/330 367/358/329
f 367/358/329 261/359/330 94/360/331 262/361/332
f 122/53/53 367/358/329 262/361/332 33/54/54
f 66/315/302 247/314/301 368/362/333 261/359/330
f 247/314/301 25/313/300 255/339/318 368/362/333
f 368/362/333 255/339/318 68/343/322 263/363/334
f 261/359/330 368/362/333 263/363/334 94/360/331
f 94/360/331 263/363/334 369/364/335 264/365/336
f 263/363/334 68/343/322 260/355/328 369/364/335
f 369/364/335 260/355/328 12/357/113 152/366/112
f 264/365/336 369/364/335 152/366/112 40/367/108
f 33/54/54 262/361/332 370/368/337 125/58/58
f 262/361/332 94/360/331 264/365/336 370/368/337
f 370/368/337 264/365/336 40/367/108 149/369/107
f 125/58/58 370/368/337 149/369/107 4/59/59
f 7/370/225 209/371/227 371/372/338 207/373/223
f 209/371/227 57/374/231 265/375/339 371/372/338
f 371/372/338 265/375/339 95/376/340 266/377/341
f 207/373/223 371/372/338 266/377/341 55/378/215
f 57/374/231 217/379/243 372/380/342 265/375/339
f 217/379/243 17/381/245 267/382/343 372/380/342
f 372/380/342 267/382/343 69/383/344 268/384/345
f 265/375/339 372/380/342 268/384/345 95/376/340
f 95/376/340 268/384/345 373/385/346 269/386/347
f 268/384/345 69/383/344 270/387/348 373/385/346
f 373/385/346 270/387/348 26/388/349 271/389/350
f 269/386/347 373/385/346 271/389/350 70/390/351
f 55/378/215 266/377/341 374/391/352 201/392/211
f 266/377/341 95/376/340 269/386/347 374/391/352
f 374/391/352 269/386/347 70/390/351 272/393/353
f 201/392/211 374/391/352 272/393/353 14/394/173
f 17/381/245 235/395/278 375/396/354 267/382/343
f 235/395/278 64/397/282 273/398/355 375/396/354
f 375/396/354 273/398/355 96/399/356 274/400/357
f 267/382/343 375/396/354 274/400/357 69/383/344
f 64/397/282 240/401/288 376/402/358 273/398/355
f 240/401/288 1/1/1 290/4/4 376/402/358
f 376/402/358 290/4/4 74/9/9 275/403/359
f 273/398/355 376/402/358 275/403/359 96/399/356
f 96/399/356 275/403/359 377/404/360 276/405/361
f 275/403/359 74/9/9 107/23/23 377/404/360
f 377/404/360 107/23/23 20/25/25 277/406/362
f 276/405/361 377/404/360 277/406/362 71/407/363
f 69/383/344 274/400/357 378/408/364 270/387/348
f 274/400/357 96/399/356 276/405/361 378/408/364
f 378/408/364 276/405/361 71/407/363 278/409/365
f 270/387/348 378/408/364 278/409/365 26/388/349
f 26/388/349 278/409/365 379/410/366 279/411/367
f 278/409/365 71/407/363 280/412/368 379/410/366
f 379/410/366 280/412/368 97/413/369 281/414/370
f 279/411/367 379/410/366 281/414/370 72/415/371
f 71/407/363 277/406/362 380/416/372 280/412/368
f 277/406/362 20/25/25 129/67/67 380/416/372
f 380/416/372 129/67/67 35/71/71 282/417/373
f 280/412/368 380/416/372 282/417/373 97/413/369
f 97/413/369 282/417/373 381/418/374 283/419/375
f 282/417/373 35/71/71 135/79/79 381/418/374
f 381/418/374 135/79/79 3/81/81 137/420/83
f 283/419/375 381/418/374 137/420/83 37/421/87
f 72/415/371 281/414/370 382/422/376 284/423/377
f 281/414/370 97/413/369 283/419/375 382/422/376
f 382/422/376 283/419/375 37/421/87 145/424/99
f 284/423/377 382/422/376 145/424/99 11/425/101
f 14/394/173 272/393/353 383/426/378 181/427/171
f 272/393/353 70/390/351 285/428/379 383/426/378
f 383/426/378 285/428/379 98/429/380 286/430/381
f 181/427/171 383/426/378 286/430/381 47/431/159
f 70/390/351 271/389/350 384/432/382 285/428/379
f 271/389/350 26/388/349 279/411/367 384/432/382
f 384/432/382 279/411/367 72/415/371 287/433/383
f 285/428/379 384/432/382 287/433/383 98/429/380
f 98/429/380 287/433/383 385/434/384 288/435/385
f 287/433/383 72/415/371 284/423/377 385/434/384
f 385/434/384 284/423/377 11/425/101 165/436/139
f 288/435/385 385/434/384 165/436/139 45/437/143
f 47/431/159 286/430/381 386/438/386 173/439/155
f 286/430/381 98/429/380 288/435/385 386/438/386
f 386/438/386 288/435/385 45/437/143 171/440/151
f 173/439/155 386/438/386 171/440/151 5/441/153
