newmtl blinn1SG
illum 2
Kd 0.12 0.42 0.47
Ka 0.00 0.00 0.00
Tf 1.00 1.00 1.00
Ni 1.00
Ks 0.50 0.50 0.50
newmtl blinn2SG
illum 4
Kd 0.03 0.03 0.03
Ka 0.00 0.00 0.00
Tf 1.00 1.00 1.00
Ni 1.00
Ks 0.50 0.50 0.50

newmtl blinn3SG
Ns 10.0000
Ni 1.5000
d 1.0000
Tr 0.0000
Tf 1.0000 1.0000 1.0000
illum 1
Ka 0.7800 0.7800 0.7800
Kd 0.7800 0.7800 0.7800
Ke 10 10 10
Ks 0 0 0

newmtl sphere1
Ka 0.01 0.01 0.01
Kd 0.01 0.01 0.01
Ks 0.95 0.95 0.95
Ns 1000
illum 5

newmtl sphere2
Ka 0.01 0.01 0.01
Kd 0.01 0.01 0.01
Ks 0.30 0.30 0.30
Tf 0.10 0.10 0.10
Ns 200
Ni 2.5
illum 7
